<?xml version="1.0" encoding="UTF-8"?>
<svg width="20px" height="20px" viewBox="0 0 20 20" version="1.1" xmlns="http://www.w3.org/2000/svg" xmlns:xlink="http://www.w3.org/1999/xlink">
    <!-- Generator: Sketch 49 (51002) - http://www.bohemiancoding.com/sketch -->
    <title>Logo Copy</title>
    <desc>Created with Sketch.</desc>
    <defs>
        <linearGradient x1="100%" y1="52.0220401%" x2="0.659179688%" y2="-1.11022302e-14%" id="linearGradient-1">
            <stop stop-color="#7C73E6" offset="0%"></stop>
            <stop stop-color="#73ACE6" offset="100%"></stop>
        </linearGradient>
    </defs>
    <g id="Page-1" stroke="none" stroke-width="1" fill="none" fill-rule="evenodd">
        <g id="Desktop-HD" transform="translate(-710.000000, -315.000000)" fill="url(#linearGradient-1)">
            <path d="M729.19216,331.075082 L729.027461,331.3404 L728.9155,331.24214 L728.616374,330.998728 L728.487908,330.902494 L728.06157,330.609073 L727.923391,330.522065 L727.482201,330.269524 L727.5901,329.999481 L727.695288,329.684409 L727.833052,329.157719 L727.899598,328.827151 L727.984438,328.274431 L728.043071,327.72126 L728.089851,326.94638 L728.113208,325.937414 L728.113208,324.062706 L728.089851,323.053731 L728.04307,322.278718 L727.984441,321.725585 L727.899604,321.172997 L727.833052,320.8424 L727.695288,320.31571 L727.590084,320.00059 L727.463124,319.682796 L727.316671,319.376551 L727.145743,319.078794 L726.933703,318.77094 L726.840558,318.654183 L726.642568,318.434642 L726.40772,318.212517 L726.221907,318.061313 L725.921492,317.854556 L725.623234,317.683341 L725.317109,317.536852 L724.999674,317.410096 L724.684407,317.304844 L724.157441,317.167009 L723.826865,317.100359 L723.274612,317.015591 L722.721294,316.957058 L721.946216,316.910145 L720.937391,316.886792 L719.062675,316.886792 L718.053842,316.910146 L717.278631,316.957058 L716.725351,317.015588 L716.173214,317.100356 L715.842578,317.167011 L715.315663,317.304838 L715.000314,317.410121 L714.682767,317.536887 L714.376759,317.683325 L714.078528,317.854535 L713.770879,318.066277 L713.65434,318.159325 L713.434542,318.357537 L713.212533,318.59229 L713.06117,318.778337 L712.854348,319.07867 L712.683315,319.376657 L712.53685,319.682768 L712.410025,320.000448 L712.304713,320.315804 L712.166922,320.842555 L712.10033,321.173099 L712.015554,321.725432 L711.956979,322.278703 L711.910109,323.053798 L711.886792,324.06267 L711.886792,325.937449 L711.910109,326.946312 L711.956978,327.721274 L712.015557,328.274584 L712.100335,328.827049 L712.166922,329.157565 L712.304713,329.684315 L712.410009,329.999624 L712.50286,330.277353 L712.076549,330.522092 L711.938393,330.609089 L711.512068,330.90251 L711.398081,330.987076 L711.184926,331.157266 L711.093415,331.23494 L710.94732,331.366688 L710.807787,331.075082 L710.637583,330.648813 L710.49521,330.222477 L710.327925,329.582973 L710.242034,329.156637 L710.143899,328.517133 L710.076194,327.877629 L710.024633,327.025089 L710,325.959249 L710,324.04087 L710.024633,322.97503 L710.076194,322.122358 L710.143899,321.482854 L710.242034,320.843483 L710.327925,320.417147 L710.49521,319.777643 L710.637583,319.351307 L710.807787,318.924971 L711.011776,318.498635 L711.256476,318.072299 L711.549978,317.646095 L711.793338,317.34697 L712.11524,317.006591 L712.432818,316.720201 L712.645973,316.550011 L713.072298,316.25659 L713.498609,316.011852 L713.924933,315.807836 L714.351258,315.637647 L714.777582,315.495314 L715.417062,315.328043 L715.84344,315.242086 L716.482814,315.143925 L717.12232,315.076274 L717.974995,315.024673 L719.04084,315 L720.959227,315 L722.025071,315.024673 L722.877614,315.076274 L723.51712,315.143925 L724.156627,315.242086 L724.582964,315.328043 L725.222471,315.495314 L725.648809,315.637647 L726.075014,315.807836 L726.501351,316.011852 L726.927689,316.25659 L727.354027,316.550011 L727.653153,316.793423 L727.993533,317.115364 L728.279925,317.432927 L728.449983,317.646095 L728.743537,318.072299 L728.988277,318.498635 L729.19216,318.924971 L729.362483,319.351307 L729.504817,319.777643 L729.672089,320.417147 L729.757913,320.843483 L729.856075,321.482854 L729.923859,322.122358 L729.975327,322.97503 L730,324.04087 L730,325.959249 L729.975327,327.025089 L729.923859,327.877629 L729.856075,328.517133 L729.757913,329.156637 L729.672089,329.582973 L729.504817,330.222477 L729.362483,330.648813 L729.19216,331.075082 Z M718.337345,328.903165 L718.166811,328.868835 L717.911009,328.801927 L717.740475,328.744993 L717.569967,328.676864 L717.399443,328.595311 L717.228914,328.497415 L717.058385,328.379993 L716.93874,328.282681 L716.802594,328.153904 L716.688033,328.026878 L716.619989,327.941611 L716.502588,327.771076 L716.404709,327.600541 L716.323113,327.430005 L716.255032,327.259523 L716.198083,327.088988 L716.131169,326.833186 L716.096818,326.662651 L716.057559,326.406848 L716.030483,326.151045 L716.009859,325.810028 L716,325.383691 L716,324.616336 L716.009859,324.189998 L716.030483,323.848928 L716.057559,323.593125 L716.096818,323.337376 L716.131169,323.166825 L716.198083,322.911033 L716.255032,322.740503 L716.323113,322.569973 L716.404709,322.399444 L716.502588,322.228919 L716.619989,322.058389 L716.717332,321.938744 L716.846093,321.802597 L716.973123,321.688035 L717.058385,321.619991 L717.228914,321.50259 L717.399443,321.40471 L717.569967,321.323115 L717.740475,321.255033 L717.911009,321.198084 L718.166811,321.13117 L718.337345,321.096813 L718.593147,321.05756 L718.848949,321.030478 L719.189964,321.009853 L719.6163,321 L720.383652,321 L720.809988,321.009853 L721.151057,321.030478 L721.406858,321.05756 L721.662607,321.096813 L721.833141,321.13117 L722.088943,321.198084 L722.259477,321.255033 L722.430012,321.323115 L722.600546,321.40471 L722.771081,321.50259 L722.941562,321.619991 L723.061212,321.717335 L723.197363,321.846096 L723.31192,321.973127 L723.379996,322.058389 L723.497364,322.228919 L723.595259,322.399444 L723.676865,322.569973 L723.744941,322.740503 L723.801874,322.911033 L723.868783,323.166825 L723.903166,323.337376 L723.94243,323.593125 L723.969491,323.848928 L723.990131,324.189998 L724,324.616336 L724,325.383691 L723.990131,325.810028 L723.969491,326.151045 L723.94243,326.406848 L723.903166,326.662651 L723.868783,326.833186 L723.801874,327.088988 L723.744941,327.259523 L723.676865,327.430005 L723.595259,327.600541 L723.497364,327.771076 L723.379996,327.941611 L723.282631,328.061261 L723.153854,328.197413 L723.026829,328.31197 L722.941562,328.379993 L722.771081,328.497415 L722.600546,328.595311 L722.430012,328.676864 L722.259477,328.744993 L722.088943,328.801927 L721.833141,328.868835 L721.662607,328.903165 L721.406858,328.94243 L721.151057,328.969544 L720.809988,328.990131 L720.383652,329 L719.6163,329 L719.189964,328.990131 L718.848949,328.969544 L718.593147,328.94243 L718.337345,328.903165 Z M727.441685,333.279919 L727.228516,333.450029 L726.802178,333.743529 L726.375841,333.988228 L725.949503,334.192217 L725.523298,334.362419 L725.09696,334.504792 L724.457454,334.672077 L724.031116,334.757954 L723.391609,334.856102 L722.752103,334.923793 L721.89956,334.975354 L720.833716,335 L718.915329,335 L717.849485,334.975354 L716.996809,334.923793 L716.357303,334.856102 L715.717929,334.757954 L715.291551,334.672077 L714.652071,334.504792 L714.225747,334.362419 L713.799422,334.192217 L713.373098,333.988228 L712.946787,333.743529 L712.520462,333.450029 L712.22135,333.206669 L712,332.997329 L712.307307,332.720201 L712.520462,332.550011 L712.946787,332.25659 L713.373098,332.011852 L713.799422,331.807836 L714.225747,331.637647 L714.652071,331.495314 L715.291551,331.328043 L715.717929,331.242086 L716.357303,331.143925 L716.996809,331.076274 L717.849485,331.024673 L718.915329,331 L720.833716,331 L721.89956,331.024673 L722.752103,331.076274 L723.391609,331.143925 L724.031116,331.242086 L724.457454,331.328043 L725.09696,331.495314 L725.523298,331.637647 L725.949503,331.807836 L726.375841,332.011852 L726.802178,332.25659 L727.228516,332.550011 L727.527642,332.793423 L727.748983,333.002774 L727.441685,333.279919 Z" id="Logo-Copy"></path>
        </g>
    </g>
</svg>